<svg width="40" height="40" viewBox="0 0 40 40" fill="none" xmlns="http://www.w3.org/2000/svg">
<g clip-path="url(#clip0_423_250)">
<path d="M30.6067 28.9405L20 39.5472L9.39334 28.9405C7.29557 26.8427 5.86698 24.17 5.28821 21.2603C4.70945 18.3506 5.00651 15.3346 6.14183 12.5937C7.27715 9.85281 9.19974 7.51014 11.6665 5.86193C14.1332 4.21371 17.0333 3.33398 20 3.33398C22.9667 3.33398 25.8668 4.21371 28.3335 5.86193C30.8003 7.51014 32.7229 9.85281 33.8582 12.5937C34.9935 15.3346 35.2906 18.3506 34.7118 21.2603C34.133 24.17 32.7044 26.8427 30.6067 28.9405ZM20 21.6672C20.8841 21.6672 21.7319 21.316 22.357 20.6909C22.9822 20.0658 23.3333 19.2179 23.3333 18.3339C23.3333 17.4498 22.9822 16.602 22.357 15.9768C21.7319 15.3517 20.8841 15.0005 20 15.0005C19.116 15.0005 18.2681 15.3517 17.643 15.9768C17.0179 16.602 16.6667 17.4498 16.6667 18.3339C16.6667 19.2179 17.0179 20.0658 17.643 20.6909C18.2681 21.316 19.116 21.6672 20 21.6672Z" fill="white"/>
</g>
<defs>
<clipPath id="clip0_423_250">
<rect width="40" height="40" fill="white"/>
</clipPath>
</defs>
</svg>
